loss_function,Recall@20,Recall@50,NDCG@100,Coverage
poisson,0.2816903753412302,0.4581828501528378,0.25401259030382894,0.13474271111627367
kullback_leibler_divergence,0.00041183364341346195,0.0005125235168988918,0.00039491636084548027,0.21982808688581718
logcosh,0.2159480812755882,0.3522586611549933,0.1974937509694604,0.029910558717621095
<function log_loss at 0x2adef063b840>,0.2814332075994257,0.4577709155632557,0.25101394124211057,0.13253571843419676
mean_squared_error,0.21454609279031167,0.3707925236345522,0.19498374749240388,0.0765477988151934
squared_hinge,0.0164449087898525,0.041874634560995924,0.019887714806665242,0.4528981298640957
cosine_proximity,0.19141046907517914,0.34685824343578925,0.17634220983869006,0.12527587408525961
kullback_leibler_divergence,0.00041183364341346195,0.0005125235168988918,0.00039491636084548027,0.2195957718666512
cosine_proximity,0.19218582876138277,0.3468297371439981,0.1754455811402792,0.1256243466140086
<function log_loss at 0x2adef063b840>,0.28207505972830593,0.45708054400971315,0.2516940704583053,0.13294226971773726
kullback_leibler_divergence,0.00041183364341346195,0.0005952912705820569,0.0004220201680711679,0.14955279358810547
<function log_loss at 0x2adef063b840>,0.28063065528028885,0.45662540557855474,0.25209636510798616,0.13363921477523522
cosine_proximity,0.19198787604168496,0.3455693128559017,0.17549704596065405,0.12237193634568475
logcosh,0.21387624553321527,0.3508156527045288,0.1953672967068455,0.03211755139969799
poisson,0.27973988766601954,0.4568234560188675,0.2539992723434172,0.1342780810779417
logcosh,0.217398479641062,0.3664349763839211,0.19643619156323616,0.04576605877569985
mean_squared_error,0.21470012730363824,0.3693233425468361,0.19477844947742393,0.07492159368103148
cosine_proximity,0.1920868270088341,0.34523096052696156,0.17561664781966663,0.12405622023463816
logcosh,0.21388179212501962,0.3626358904754337,0.1953311869195927,0.05343245440817749
squared_hinge,0.01588715897072,0.03900106857637948,0.0193287148408364,0.39493553258218145
mean_squared_error,0.21862412610466703,0.37438298010075405,0.1960785074336037,0.0768381925891509
<function log_loss at 0x2adef063b840>,0.2794658253491242,0.4577586057747809,0.25105528067450283,0.13683354628876757
<function log_loss at 0x2adef063b840>,0.280010481504992,0.45866409933544255,0.2514709381650781,0.127889418050877
squared_hinge,0.017765677291107042,0.041510764077440046,0.02019546057448258,0.4372749448251829
logcosh,0.2193193185583261,0.3623933638972251,0.19849232033365918,0.04216517597862702
cosine_proximity,0.1922269081067985,0.3450642285767971,0.17554823504690983,0.12405622023463816
poisson,0.27995531310066746,0.45682196998796226,0.2540084731105952,0.1358462074573121
<function log_loss at 0x2adef063b840>,0.28094851564266,0.456781864625062,0.2511763370831471,0.13015448948774538
poisson,0.2807844043864894,0.45577290348395777,0.2537862659366004,0.1337553722848182
poisson,0.28094263138211567,0.4558027120256221,0.2542907205215211,0.13509118364502265
